\relax 
\providecommand\hyper@newdestlabel[2]{}
\providecommand\HyperFirstAtBeginDocument{\AtBeginDocument}
\HyperFirstAtBeginDocument{\ifx\hyper@anchor\@undefined
\global\let\oldcontentsline\contentsline
\gdef\contentsline#1#2#3#4{\oldcontentsline{#1}{#2}{#3}}
\global\let\oldnewlabel\newlabel
\gdef\newlabel#1#2{\newlabelxx{#1}#2}
\gdef\newlabelxx#1#2#3#4#5#6{\oldnewlabel{#1}{{#2}{#3}}}
\AtEndDocument{\ifx\hyper@anchor\@undefined
\let\contentsline\oldcontentsline
\let\newlabel\oldnewlabel
\fi}
\fi}
\global\let\hyper@last\relax 
\gdef\HyperFirstAtBeginDocument#1{#1}
\providecommand*\HyPL@Entry[1]{}
\citation{DBLP:conf/recsys/Kula15}
\citation{BPR}
\citation{WARP}
\bibstyle{acm}
\bibdata{report}
\bibcite{DBLP:conf/recsys/Kula15}{1}
\HyPL@Entry{0<</S/D>>}
\@writefile{toc}{\contentsline {section}{\numberline {1}Task}{1}{section.1}}
\@writefile{toc}{\contentsline {section}{\numberline {2}Proposed Methods}{1}{section.2}}
\@writefile{toc}{\contentsline {subsection}{\numberline {2.1}Rule-based Method}{1}{subsection.2.1}}
\@writefile{toc}{\contentsline {subsection}{\numberline {2.2}Factorization Machines (FM) Method}{1}{subsection.2.2}}
\@writefile{toc}{\contentsline {section}{\numberline {3}Result}{1}{section.3}}
\@writefile{toc}{\contentsline {section}{\numberline {4}Conclusion and Future Work}{1}{section.4}}
\bibcite{BPR}{2}
\bibcite{WARP}{3}
\@writefile{lot}{\contentsline {table}{\numberline {1}{\ignorespaces Public Leaderboard Score}}{2}{table.1}}
\newlabel{table:score}{{1}{2}{Public Leaderboard Score}{table.1}{}}
